{
    "id": 13,
    "meta": {
    "type": "joyous.SimpleEventPage",
    "detail_url": "http://localhost/api/v2/pages/13/",
    "html_url": "http://localhost/schedule/episode-two/",
    "slug": "episode-two",
    "show_in_menus": false,
    "seo_title": "",
    "search_description": "",
    "first_published_at": "2021-11-09T21:07:20.516562Z",
    "parent": {
    "id": 8,
    "meta": {
    "type": "joyous.CalendarPage",
    "detail_url": "http://localhost/api/v2/pages/8/",
    "html_url": "http://localhost/schedule/"
    },
    "title": "Schedule"
    }
    },
    "title": "Episode Two",
    "uid": "646df2d7-73e6-4b05-a513-0dadf120d9f1",
    "show": {
    "id": 11,
    "meta": {
    "type": "show.ShowPage",
    "detail_url": "http://localhost/api/v2/pages/11/"
    },
    "title": "Sound Sounds"
    },
    "image": {
    "id": 1,
    "meta": {
    "type": "wagtailimages.Image",
    "detail_url": "http://localhost/api/v2/images/1/",
    "download_url": "/media/original_images/test-pattern-152459_1280.webp"
    },
    "title": "test-pattern-152459_1280.webp"
    },
    "time_from": "23:00:00",
    "time_to": "23:30:00",
    "date": "2021-11-09",
    "episode_description": "We're excited to welcome Ela Orleans and Soft Riot for this instalment of Subcity Sessions.\r\n\r\nBorn in Poland, Ela Orleans moved to Glasgow, Scotland in 1997 and joined collage pop group Hassle Hound. In 2004, Orleans moved to New York, where she collaborated with various noise artists. She began releasing her solo material in 2008. Orleans’ first release, 2009’s Lost LP on French label La Station Radar, received acclaim from several indie music publications and independent record stores around the world. Since then Orleans has been consistently praised for her consecutive releases. In October 2013, her double album Tumult In Clouds received The Dead Albatross Music Prize voted for by the finest record shops, radio presenters, listeners, writers and record collectors from across UK and Ireland. Her tracks have been played frequently on major and independent radio stations in UK, Europe, America and Japan. Orleans moved back to Glasgow by the end of 2011. She since toured UK and Europe, worked on several albums, soundtracks for independent films, and completed a remix of new age pioneer Laraaji for Warp.\r\n\r\nSoft Riot is JJD, a former Vancouverite now residing in the Glasgow UK who has clocked in around twenty years of musical output in various bands and projects, including half a dozen art-damaged punk and hardcore bands as well as first-wave post-punk revivalists Radio Berlin. Moving from Vancouver to London UK in the late 2000s, Soft Riot came into full being, having released a couple of acclaimed albums and EPs and staging numerous tours around Europe.\r\n\r\nUsing an arsenal of synthesizers and effects, Soft Riot’s sound is an amalgamation of JJD’s personal experience with music, containing elements of synthesiser-based film soundtracks, romantic italo-style flourishes, throbbing arpeggiations and angular, psychedelic synth-pop all tied together with an underlying tension. It is a science-fiction heavy soundscape that narrates the listener through today’s fractured, excessive landscape with hints of black humour.",
    "playlist": [
    "NOT",
    "WIP",
    "final model"
    ]
    }