{
    "id": 11,
    "meta": {
    "type": "show.ShowPage",
    "detail_url": "http://localhost/api/v2/pages/11/",
    "html_url": "http://localhost/shows/sound-sounds/",
    "slug": "sound-sounds",
    "show_in_menus": false,
    "seo_title": "",
    "search_description": "",
    "first_published_at": "2021-11-09T21:03:35.036855Z",
    "parent": {
    "id": 9,
    "meta": {
    "type": "shows.ShowsPage",
    "detail_url": "http://localhost/api/v2/pages/9/",
    "html_url": "http://localhost/shows/"
    },
    "title": "Shows"
    }
    },
    "title": "Sound Sounds",
    "banner_image": {
    "id": 1,
    "meta": {
    "type": "wagtailimages.Image",
    "detail_url": "http://localhost/api/v2/images/1/",
    "download_url": "/media/original_images/test-pattern-152459_1280.webp"
    },
    "title": "test-pattern-152459_1280.webp"
    },
    "show_description": "it's radio baby"
    }